3 11 19 160 187 55
3 11 19 160 175 56
3 11 19 160 175 57
3 11 19 160 181 58
3 11 19 160 181 59
3 11 19 160 187 55
3 11 19 160 175 56
3 11 19 160 175 57
3 11 19 160 181 58
3 11 19 160 181 59
2 11 16 160 150 55
2 11 16 160 137 56
2 11 16 160 162 57
2 11 16 160 150 58
2 11 16 160 131 59
3 12 19 160 168 60
3 12 19 160 168 61
3 12 19 160 131 62
3 12 19 160 118 63
3 12 19 160 131 64
3 12 19 160 168 60
3 12 19 160 168 61
3 12 19 160 131 62
3 12 19 160 118 63
3 12 19 160 131 64
2 12 16 160 150 60
2 12 16 160 150 61
2 12 16 160 137 62
2 12 16 160 143 63
2 12 16 160 143 64
3 13 19 160 168 65
3 13 19 160 181 66
3 13 19 160 175 67
3 13 19 160 175 68
3 13 19 160 175 69
3 13 19 160 168 65
3 13 19 160 181 66
3 13 19 160 175 67
3 13 19 160 175 68
3 13 19 160 175 69
2 13 16 160 156 65
2 13 16 160 143 66
2 13 16 160 150 67
2 13 16 160 162 68
2 13 16 160 143 69
2 14 16 160 143 70
2 14 16 160 150 71
2 14 16 160 162 72
2 14 16 160 150 73
2 14 16 160 137 74
3 14 19 160 181 70
3 14 19 160 175 71
3 14 19 160 175 72
3 14 19 160 175 73
3 14 19 160 181 74
3 14 19 160 181 70
3 14 19 160 175 71
3 14 19 160 175 72
3 14 19 160 175 73
3 14 19 160 181 74
2 15 16 160 168 75
2 15 16 160 150 76
2 15 16 160 162 77
2 15 16 160 156 78
2 15 16 160 150 79
3 15 19 160 187 75
3 15 19 160 162 76
3 15 19 160 175 77
3 15 19 160 181 78
3 15 19 160 175 79
3 15 19 160 187 75
3 15 19 160 162 76
3 15 19 160 175 77
3 15 19 160 181 78
3 15 19 160 175 79
2 16 16 160 156 80
2 16 16 160 143 81
2 16 16 160 168 82
2 16 16 160 168 83
2 16 16 160 150 84
3 16 19 160 175 80
3 16 19 160 181 81
3 16 18 160 181 82
3 16 19 160 168 83
3 16 18 160 175 84
3 16 19 160 175 80
3 16 19 160 181 81
3 16 18 160 181 82
3 16 19 160 168 83
3 16 18 160 175 84
2 17 16 160 131 85
2 17 15 160 156 86
2 17 15 160 156 87
2 17 15 160 162 88
2 17 15 160 168 89
3 17 18 160 175 85
3 17 18 160 175 86
3 17 18 160 181 87
3 17 18 160 181 88
3 17 18 160 175 89
3 17 18 160 175 85
3 17 18 160 175 86
3 17 18 160 181 87
3 17 18 160 181 88
3 17 18 160 175 89
2 18 15 160 162 90
2 18 15 160 162 91
2 18 15 160 150 92
2 18 15 160 143 93
2 18 15 160 150 94
3 18 18 160 162 90
3 18 18 160 168 91
3 18 18 160 168 92
3 18 18 160 175 93
3 18 18 160 175 94
3 18 18 160 162 90
3 18 18 160 168 91
3 18 18 160 168 92
3 18 18 160 175 93
3 18 18 160 175 94
2 19 16 160 150 95
2 19 15 160 162 96
2 19 15 160 143 97
2 19 15 160 137 98
2 19 15 160 143 99
3 19 18 160 175 95
3 19 18 160 168 96
3 19 18 160 162 97
3 19 18 160 168 98
3 19 18 160 168 99
3 19 18 160 175 95
3 19 18 160 168 96
3 19 18 160 162 97
3 19 18 160 168 98
3 19 18 160 168 99
2 20 15 160 156 100
2 20 15 160 156 101
2 20 15 160 162 102
2 20 15 160 150 103
2 20 16 160 125 104
3 20 18 160 175 100
3 20 18 160 175 101
3 20 18 160 175 102
3 20 18 160 168 103
3 20 19 160 162 104
3 20 18 160 175 100
3 20 18 160 175 101
3 20 18 160 175 102
3 20 18 160 168 103
3 20 19 160 162 104
2 21 15 160 125 105
2 21 15 160 131 106
2 21 15 160 131 107
2 21 15 160 131 108
2 21 15 160 143 109
3 21 18 160 168 105
3 21 18 160 175 106
3 21 18 160 175 107
3 21 18 160 175 108
3 21 18 160 175 109
3 21 18 160 168 105
3 21 18 160 175 106
3 21 18 160 175 107
3 21 18 160 175 108
3 21 18 160 175 109
2 22 15 160 125 110
2 22 15 160 118 111
2 22 16 160 118 112
2 22 16 160 137 113
2 22 16 160 118 114
3 22 19 160 162 110
3 22 19 160 156 111
3 22 19 160 168 112
3 22 19 160 168 113
3 22 19 160 168 114
3 22 19 160 162 110
3 22 19 160 156 111
3 22 19 160 168 112
3 22 19 160 168 113
3 22 19 160 168 114
2 23 16 160 137 115
2 23 16 160 137 116
2 23 16 160 125 117
2 23 16 160 125 118
2 23 16 160 131 119
3 23 19 160 168 115
3 23 19 160 162 116
3 23 19 160 162 117
3 23 19 160 168 118
3 23 19 160 168 119
3 23 19 160 168 115
3 23 19 160 162 116
3 23 19 160 162 117
3 23 19 160 168 118
3 23 19 160 168 119
2 24 16 160 125 120
2 24 16 160 131 121
2 24 16 160 131 122
2 24 16 160 112 123
2 24 16 160 143 124
3 24 19 160 175 120
3 24 19 160 168 121
3 24 19 160 162 122
3 24 19 160 175 123
3 24 19 160 168 124
3 24 19 160 175 120
3 24 19 160 168 121
3 24 19 160 162 122
3 24 19 160 175 123
3 24 19 160 168 124
2 25 16 160 125 125
2 25 16 160 143 126
2 25 16 160 143 127
2 25 16 160 137 128
2 25 16 160 150 129
3 25 19 160 168 125
3 25 19 160 168 126
3 25 19 160 168 127
3 25 19 160 162 128
3 25 19 160 162 129
3 25 19 160 168 125
3 25 19 160 168 126
3 25 19 160 168 127
3 25 19 160 162 128
3 25 19 160 162 129
2 26 16 160 156 130
2 26 16 160 131 131
2 26 16 160 143 132
2 26 16 160 131 133
2 26 16 160 125 134
3 26 19 160 156 130
3 26 19 160 175 131
3 26 19 160 175 132
3 26 19 160 168 133
3 26 19 160 175 134
3 26 19 160 156 130
3 26 19 160 175 131
3 26 19 160 175 132
3 26 19 160 168 133
3 26 19 160 175 134
2 27 16 160 143 135
2 27 16 160 143 136
2 27 16 160 125 137
2 27 16 160 143 138
2 27 16 160 137 139
3 27 19 160 162 135
3 27 19 160 168 136
3 27 19 160 175 137
3 27 19 160 162 138
3 27 19 160 168 139
3 27 19 160 162 135
3 27 19 160 168 136
3 27 19 160 175 137
3 27 19 160 162 138
3 27 19 160 168 139
2 28 16 160 143 140
2 28 16 160 143 141
2 28 16 160 125 142
2 28 16 160 143 143
2 28 16 160 143 144
3 28 19 160 156 140
3 28 19 160 175 141
3 28 19 160 162 142
3 28 19 160 156 143
3 28 19 160 175 144
3 28 19 160 156 140
3 28 19 160 175 141
3 28 19 160 162 142
3 28 19 160 156 143
3 28 19 160 175 144
2 29 16 160 125 145
2 29 16 160 143 146
2 29 16 160 131 147
2 29 16 160 125 148
2 29 16 160 131 149
3 29 19 160 162 145
3 29 19 160 168 146
3 29 19 160 168 147
3 29 19 160 168 148
3 29 19 160 162 149
3 29 19 160 162 145
3 29 19 160 168 146
3 29 19 160 168 147
3 29 19 160 168 148
3 29 19 160 162 149
2 30 16 160 137 150
2 30 16 160 131 151
2 30 16 160 118 152
2 30 16 160 137 153
2 30 16 160 125 154
3 30 19 160 168 150
3 30 19 160 175 151
3 30 19 160 175 152
3 30 19 160 168 153
3 30 19 160 175 154
3 30 19 160 168 150
3 30 19 160 175 151
3 30 19 160 175 152
3 30 19 160 168 153
3 30 19 160 175 154
2 31 16 160 131 155
2 31 16 160 137 156
2 31 16 160 131 157
2 31 16 160 118 158
2 31 16 160 125 159
3 31 19 160 162 155
3 31 19 160 168 156
3 31 19 160 175 157
3 31 19 160 168 158
3 31 19 160 175 159
3 31 19 160 162 155
3 31 19 160 168 156
3 31 19 160 175 157
3 31 19 160 168 158
3 31 19 160 175 159
2 32 16 160 125 160
2 32 16 160 137 161
2 32 16 160 143 162
2 32 16 160 131 163
2 32 16 160 125 164
3 32 19 160 162 160
3 32 19 160 175 161
3 32 19 160 168 162
3 32 19 160 175 163
3 32 19 160 175 164
3 32 19 160 162 160
3 32 19 160 175 161
3 32 19 160 168 162
3 32 19 160 175 163
3 32 19 160 175 164
2 33 16 160 131 165
2 33 16 160 125 166
2 33 16 160 137 167
2 33 16 160 125 168
2 33 16 160 137 169
3 33 19 160 162 165
3 33 19 160 168 166
3 33 19 160 168 167
3 33 19 160 168 168
3 33 19 160 175 169
3 33 19 160 162 165
3 33 19 160 168 166
3 33 19 160 168 167
3 33 19 160 168 168
3 33 19 160 175 169
2 34 16 160 131 170
2 34 16 160 118 171
2 34 16 160 125 172
2 34 16 160 131 173
2 34 16 160 112 174
3 34 19 160 162 170
3 34 19 160 175 171
3 34 19 160 168 172
3 34 19 160 162 173
3 34 19 160 156 174
3 34 19 160 162 170
3 34 19 160 175 171
3 34 19 160 168 172
3 34 19 160 162 173
3 34 19 160 156 174
2 35 16 160 143 175
2 35 16 160 150 176
2 35 16 160 150 177
2 35 16 160 187 178
2 35 16 160 175 179
3 35 19 160 162 175
3 35 19 160 156 176
3 35 19 160 168 177
3 35 19 160 156 178
3 35 19 160 143 179
2 36 16 160 175 180
2 36 16 160 162 181
2 36 16 160 162 182
2 36 16 160 162 183
2 36 16 160 168 184
3 36 19 160 162 180
3 36 19 160 150 181
3 36 19 160 168 182
3 36 19 160 162 183
3 36 19 160 156 184
3 36 19 160 162 180
3 36 19 160 150 181
3 36 19 160 168 182
3 36 19 160 162 183
3 36 19 160 156 184
2 37 16 160 150 185
2 37 16 160 156 186
2 37 16 160 181 187
2 37 16 160 162 188
2 37 16 160 150 189
3 37 19 160 156 185
3 37 19 160 168 186
3 37 19 160 162 187
3 37 19 160 156 188
3 37 19 160 150 189
3 37 19 160 156 185
3 37 19 160 168 186
3 37 19 160 162 187
3 37 19 160 156 188
3 37 19 160 150 189
2 38 16 160 168 190
2 38 16 160 156 191
2 38 16 160 168 192
2 38 16 160 168 193
2 38 16 160 150 194
3 38 19 160 150 190
3 38 19 160 168 191
3 38 19 160 162 192
3 38 19 160 150 193
3 38 19 160 131 194
3 38 19 160 150 190
3 38 19 160 168 191
3 38 19 160 162 192
3 38 19 160 150 193
3 38 19 160 131 194
2 39 16 160 162 195
2 39 16 160 168 196
2 39 16 160 143 197
2 39 16 160 175 198
2 39 16 160 156 199
3 39 19 160 100 195
3 39 19 160 150 196
3 39 19 160 168 197
3 39 19 160 168 198
3 39 19 160 168 199
3 39 19 160 100 195
3 39 19 160 150 196
3 39 19 160 168 197
3 39 19 160 168 198
3 39 19 160 168 199
2 40 16 160 200 200
2 40 16 160 181 201
2 40 16 160 168 202
2 40 16 160 181 203
2 40 16 160 181 204
3 40 19 160 168 200
3 40 19 160 162 201
3 40 19 160 168 202
3 40 19 160 175 203
3 40 19 160 162 204
3 40 19 160 168 200
3 40 19 160 162 201
3 40 19 160 168 202
3 40 19 160 175 203
3 40 19 160 162 204
2 41 16 160 168 205
2 41 16 160 187 206
2 41 16 160 200 207
2 41 16 160 187 208
2 41 16 160 175 209
2 42 16 160 193 210
2 42 16 160 181 211
2 42 16 160 193 212
2 42 16 160 206 213
2 42 16 160 193 214
3 41 19 160 168 205
3 41 19 160 162 206
3 41 19 160 168 207
3 41 19 160 181 208
3 41 19 160 168 209
3 41 19 160 168 205
3 41 19 160 162 206
3 41 19 160 168 207
3 41 19 160 181 208
3 41 19 160 168 209
2 43 16 160 193 215
2 43 16 160 193 216
2 43 16 160 187 217
2 43 16 160 181 218
2 43 16 160 193 219
3 42 19 160 175 210
3 42 19 160 168 211
3 42 19 160 162 212
3 42 19 160 162 213
3 42 19 160 162 214
3 42 19 160 175 210
3 42 19 160 168 211
3 42 19 160 162 212
3 42 19 160 162 213
3 42 19 160 162 214
2 44 16 160 175 220
2 44 16 160 175 221
2 44 16 160 200 222
2 44 16 160 187 223
2 44 16 160 187 224
3 43 19 160 175 215
3 43 19 160 162 216
3 43 19 160 168 217
3 43 19 160 175 218
3 43 19 160 168 219
3 43 19 160 175 215
3 43 19 160 162 216
3 43 19 160 168 217
3 43 19 160 175 218
3 43 19 160 168 219
2 45 16 160 206 225
2 45 16 160 193 226
2 45 16 160 181 227
2 45 16 160 206 228
2 45 16 160 200 229
3 44 19 160 168 220
3 44 19 160 168 221
3 44 19 160 162 222
3 44 19 160 175 223
3 44 19 160 162 224
3 44 19 160 168 220
3 44 19 160 168 221
3 44 19 160 162 222
3 44 19 160 175 223
3 44 19 160 162 224
2 46 16 160 200 230
2 46 16 160 200 231
2 46 16 160 187 232
2 46 16 160 193 233
2 46 16 160 200 234
3 45 19 160 162 225
3 45 19 160 106 226
3 45 19 160 150 227
3 45 19 160 150 228
3 45 19 160 156 229
3 45 19 160 162 225
3 45 19 160 106 226
3 45 19 160 150 227
3 45 19 160 150 228
3 45 19 160 156 229
2 47 16 160 187 235
2 47 16 160 200 236
2 47 16 160 187 237
2 47 16 160 181 238
2 47 16 160 206 239
3 46 19 160 175 230
3 46 19 160 162 231
3 46 19 160 168 232
3 46 19 160 162 233
3 46 19 160 150 234
3 46 19 160 175 230
3 46 19 160 162 231
3 46 19 160 168 232
3 46 19 160 162 233
3 46 19 160 150 234
2 48 16 160 187 240
2 48 16 160 181 241
2 48 16 160 193 242
2 48 16 160 181 243
2 48 16 160 175 244
3 47 19 160 162 235
3 47 19 160 162 236
3 47 19 160 162 237
3 47 19 160 168 238
3 47 19 160 156 239
3 47 19 160 162 235
3 47 19 160 162 236
3 47 19 160 162 237
3 47 19 160 168 238
3 47 19 160 156 239
2 49 16 160 193 245
2 49 16 160 175 246
2 49 16 160 200 247
2 49 16 160 193 248
2 49 16 160 187 249
3 48 19 160 168 240
3 48 19 160 162 241
3 48 19 160 162 242
3 48 19 160 168 243
3 48 19 160 168 244
3 48 19 160 168 240
3 48 19 160 162 241
3 48 19 160 162 242
3 48 19 160 168 243
3 48 19 160 168 244
2 50 16 160 193 250
2 50 16 160 193 251
2 50 16 160 175 252
2 50 16 160 193 253
2 50 16 160 193 254
3 49 19 160 168 245
3 49 19 160 162 246
3 49 19 160 168 247
3 49 19 160 168 248
3 49 19 160 168 249
3 49 19 160 168 245
3 49 19 160 162 246
3 49 19 160 168 247
3 49 19 160 168 248
3 49 19 160 168 249
2 51 16 160 193 255
2 51 16 160 187 256
2 51 16 160 187 257
2 51 16 160 175 258
2 51 16 160 200 259
3 50 19 160 162 250
3 50 19 160 168 251
3 50 19 160 162 252
3 50 19 160 156 253
3 50 19 160 156 254
3 50 19 160 162 250
3 50 19 160 168 251
3 50 19 160 162 252
3 50 19 160 156 253
3 50 19 160 156 254
2 52 16 160 175 260
2 52 16 160 200 261
2 52 16 160 187 262
2 52 16 160 193 263
2 52 16 160 187 264
3 51 19 160 106 255
3 51 19 160 168 256
3 51 19 160 156 257
3 51 19 160 156 258
3 51 19 160 168 259
3 51 19 160 106 255
3 51 19 160 168 256
3 51 19 160 156 257
3 51 19 160 156 258
3 51 19 160 168 259
2 53 16 160 162 265
2 53 16 160 181 266
2 53 16 160 175 267
2 53 16 160 168 268
2 53 16 160 156 269
3 52 19 160 162 260
3 52 19 160 150 261
3 52 19 160 162 262
3 52 19 160 156 263
3 52 19 160 156 264
3 52 19 160 162 260
3 52 19 160 150 261
3 52 19 160 162 262
3 52 19 160 156 263
3 52 19 160 156 264
2 54 16 160 168 270
2 54 16 160 162 271
2 54 16 160 150 272
2 54 16 160 131 273
2 54 16 160 175 274
3 53 19 160 118 265
3 53 19 160 93 266
3 53 19 160 100 267
3 53 19 160 143 268
3 53 19 160 156 269
3 53 19 160 118 265
3 53 19 160 93 266
3 53 19 160 100 267
3 53 19 160 143 268
3 53 19 160 156 269
2 55 16 160 150 275
2 55 16 160 175 276
2 55 16 160 168 277
2 55 16 160 150 278
2 55 16 160 162 279
3 54 19 160 162 270
3 54 19 160 162 271
3 54 19 160 156 272
3 54 19 160 150 273
3 54 19 160 168 274
3 54 19 160 162 270
3 54 19 160 162 271
3 54 19 160 156 272
3 54 19 160 150 273
3 54 19 160 168 274
2 56 16 160 143 280
2 56 16 160 150 281
2 56 16 160 168 282
2 56 16 160 162 283
2 56 16 160 162 284
3 55 19 160 156 275
3 55 19 160 162 276
3 55 19 160 162 277
3 55 19 160 156 278
3 55 19 160 162 279
3 55 19 160 156 275
3 55 19 160 162 276
3 55 19 160 162 277
3 55 19 160 156 278
3 55 19 160 162 279
2 57 16 160 168 285
2 57 16 160 162 286
2 57 16 160 162 287
2 57 16 160 162 288
2 57 16 160 162 289
3 56 19 160 168 280
3 56 19 160 150 281
3 56 19 160 168 282
3 56 19 160 168 283
3 56 19 160 162 284
2 58 16 160 175 290
2 58 16 160 168 291
2 58 16 160 150 292
2 58 16 160 168 293
2 58 16 160 168 294
3 57 19 160 168 285
3 57 19 160 168 286
3 57 19 160 162 287
3 57 19 160 168 288
3 57 19 160 168 289
3 57 19 160 168 285
3 57 19 160 168 286
3 57 19 160 162 287
3 57 19 160 168 288
3 57 19 160 168 289
2 59 16 160 156 295
2 59 16 160 175 296
2 59 16 160 162 297
2 59 16 160 150 298
2 59 16 160 175 299
3 58 19 160 156 290
3 58 19 160 168 291
3 58 19 160 162 292
3 58 19 160 162 293
3 58 19 160 168 294
3 58 19 160 156 290
3 58 19 160 168 291
3 58 19 160 162 292
3 58 19 160 162 293
3 58 19 160 168 294
2 60 16 160 168 300
2 60 16 160 150 301
2 60 16 160 162 302
2 60 16 160 200 303
2 60 16 160 187 304
3 59 19 160 156 295
3 59 19 160 168 296
3 59 19 160 175 297
3 59 19 160 162 298
3 59 19 160 156 299
3 59 19 160 156 295
3 59 19 160 168 296
3 59 19 160 175 297
3 59 19 160 162 298
3 59 19 160 156 299
2 61 16 160 168 305
2 61 16 160 200 306
2 61 16 160 168 307
2 61 16 160 162 308
2 61 16 160 181 309
2 62 16 160 175 310
2 62 16 160 168 311
2 62 16 160 193 312
2 62 16 160 187 313
2 62 16 160 162 314
3 60 19 160 162 300
3 60 19 160 156 301
3 60 19 160 168 302
3 60 19 160 162 303
3 60 19 160 150 304
3 60 19 160 162 300
3 60 19 160 156 301
3 60 19 160 168 302
3 60 19 160 162 303
3 60 19 160 150 304
3 61 19 160 150 305
3 61 19 160 156 306
3 61 19 160 143 307
3 61 19 160 162 308
3 61 19 160 162 309
3 61 19 160 150 305
3 61 19 160 156 306
3 61 19 160 143 307
3 61 19 160 162 308
3 61 19 160 162 309
2 64 16 160 168 320
2 64 16 160 168 321
2 64 16 160 187 322
2 64 16 160 168 323
2 64 16 160 162 324
3 62 19 160 150 310
3 62 19 160 156 311
3 62 19 160 150 312
3 62 19 160 156 313
3 62 19 160 156 314
3 62 19 160 150 310
3 62 19 160 156 311
3 62 19 160 150 312
3 62 19 160 156 313
3 62 19 160 156 314
2 65 16 160 193 325
2 65 16 160 181 326
2 65 16 160 175 327
2 65 16 160 187 328
2 65 16 160 168 329
3 63 19 160 162 315
3 63 19 160 162 316
3 63 19 160 150 317
3 63 19 160 156 318
3 63 19 160 143 319
3 63 19 160 162 315
3 63 19 160 162 316
3 63 19 160 150 317
3 63 19 160 156 318
3 63 19 160 143 319
2 66 16 160 168 330
2 66 16 160 200 331
2 66 16 160 168 332
2 66 16 160 181 333
2 66 16 160 162 334
3 64 19 160 125 320
3 64 19 160 106 321
3 64 19 160 106 322
3 64 19 160 106 323
3 64 19 160 125 324
3 64 19 160 125 320
3 64 19 160 106 321
3 64 19 160 106 322
3 64 19 160 106 323
3 64 19 160 125 324
2 67 16 160 187 335
2 67 16 160 162 336
2 67 16 160 181 337
2 67 16 160 181 338
2 67 16 160 175 339
3 65 19 160 162 325
3 65 19 160 150 326
3 65 19 160 150 327
3 65 19 160 162 328
3 65 19 160 150 329
3 65 19 160 162 325
3 65 19 160 150 326
3 65 19 160 150 327
3 65 19 160 162 328
3 65 19 160 150 329
2 68 16 160 168 340
2 68 16 160 175 341
2 68 16 160 168 342
2 68 16 160 193 343
2 68 16 160 168 344
3 66 19 160 162 330
3 66 19 160 162 331
3 66 19 160 162 332
3 66 19 160 156 333
3 66 19 160 162 334
3 66 19 160 162 330
3 66 19 160 162 331
3 66 19 160 162 332
3 66 19 160 156 333
3 66 19 160 162 334
2 69 16 160 181 345
2 69 16 160 168 346
2 69 16 160 162 347
2 69 16 160 175 348
2 69 16 160 187 349
3 67 19 160 162 335
3 67 19 160 143 336
3 67 19 160 168 337
3 67 19 160 168 338
3 67 19 160 150 339
3 67 19 160 162 335
3 67 19 160 143 336
3 67 19 160 168 337
3 67 19 160 168 338
3 67 19 160 150 339
2 70 16 160 150 350
2 70 16 160 175 351
2 70 16 160 168 352
2 70 16 160 150 353
2 70 16 160 162 354
3 68 19 160 168 340
3 68 19 160 162 341
3 68 19 160 150 342
3 68 19 160 162 343
3 68 19 160 162 344
3 68 19 160 168 340
3 68 19 160 162 341
3 68 19 160 150 342
3 68 19 160 162 343
3 68 19 160 162 344
2 71 16 160 150 355
2 71 16 160 156 356
2 71 16 160 150 357
2 71 16 160 143 358
2 71 16 160 125 359
3 69 19 160 168 345
3 69 19 160 150 346
3 69 19 160 162 347
3 69 19 160 162 348
3 69 19 160 162 349
3 69 19 160 168 345
3 69 19 160 150 346
3 69 19 160 162 347
3 69 19 160 162 348
3 69 19 160 162 349
2 72 16 160 162 360
2 72 16 160 168 361
2 72 16 160 156 362
2 72 16 160 162 363
2 72 16 160 112 364
3 70 19 160 150 350
3 70 19 160 168 351
3 70 19 160 137 352
3 70 19 160 125 353
3 70 19 160 112 354
3 70 19 160 150 350
3 70 19 160 168 351
3 70 19 160 137 352
3 70 19 160 125 353
3 70 19 160 112 354
2 73 16 160 118 365
2 73 16 160 112 366
2 73 16 160 118 367
2 73 16 160 112 368
2 73 16 160 100 369
